<svg width="24" height="24" viewBox="0 0 24 24" fill="none" xmlns="http://www.w3.org/2000/svg">
<path fill-rule="evenodd" clip-rule="evenodd" d="M19.6733 7.92531C19.2185 9.71977 15.5765 9.43806 16.0572 3.6994C16.3716 -0.0547572 13.4526 -0.436137 11.623 0.319727C11.4233 0.402217 11.2356 0.498212 11.0605 0.605948C10.7997 0.646192 10.5395 0.717805 10.2844 0.823202C8.45479 1.57907 7.6794 3.59799 8.37721 5.4269C9.07501 7.25581 10.5982 8.93562 12.4278 8.17976C12.5195 8.14186 12.61 8.09904 12.6991 8.05165C12.4559 8.93443 11.681 9.22751 10.8862 9.52809C10.0766 9.83431 9.2464 10.1483 8.93676 11.1015C8.70692 11.809 8.82404 12.3531 9.14939 12.7416C6.99276 13.1629 5.31596 14.4 5.06085 16.6816C4.75094 19.4531 5.61942 20.9728 7.79088 21.8677C7.82986 22.0799 7.84105 22.2708 7.80641 22.4327C7.54853 23.6386 9.50384 23.8371 10.4971 23.9379L10.5475 23.943C14.2624 24.3216 14.5602 22.7341 14.7876 21.5224C14.8077 21.4153 14.8272 21.3111 14.8485 21.2115C14.8516 21.1968 14.8541 21.182 14.8558 21.1669C15.4396 20.136 15.4519 19.0406 15.2952 18.0623C15.3432 17.7987 15.3859 17.4682 15.4224 17.0549C15.9658 16.509 16.8745 16.0481 17.7208 15.6189C18.8692 15.0364 19.9028 14.5122 19.7535 13.9128C19.6267 13.4039 18.5972 12.1905 17.48 11.1428C18.4692 11.0777 19.3786 10.2097 19.6733 7.92531ZM16.2107 12.3635L16.2717 12.2838C16.9738 12.8242 17.6094 13.3745 17.7455 13.9128C17.8249 14.2267 16.6921 15.0401 15.7481 15.7179L15.7472 15.7185C15.4791 15.911 15.2263 16.0925 15.0208 16.2485C14.9824 16.3063 14.9441 16.3651 14.9059 16.4247C14.7999 16.0421 14.7139 15.7169 14.6986 15.472C14.6326 14.4182 15.7924 12.9082 16.2107 12.3635Z" fill="#232323"/>
<path d="M19.6733 7.92531C19.7062 7.79517 19.7225 7.65412 19.7191 7.50343C19.7061 7.64913 19.6908 7.78972 19.6733 7.92531Z" fill="#232323"/>
</svg>
