<svg width="24" height="24" viewBox="0 0 24 24" fill="none" xmlns="http://www.w3.org/2000/svg">
<path d="M12.0001 1C14.5739 1 17.0665 1.9024 19.0431 3.55047C21.0202 5.19854 22.3567 7.48758 22.8201 10.0194C23.2833 12.5513 22.8442 15.1654 21.5791 17.4069L22.979 22.3059C23.033 22.4961 22.9799 22.7007 22.8401 22.8403C22.7005 22.9801 22.4959 23.0332 22.3057 22.9792L17.4067 21.5793C15.4461 22.6859 13.1932 23.1643 10.9522 22.9498C8.71117 22.7355 6.58976 21.8385 4.87463 20.3803C3.15949 18.9219 1.93308 16.9726 1.36112 14.7951C0.788957 12.6177 0.898826 10.3172 1.67559 8.20423C2.45253 6.09134 3.85903 4.26752 5.70531 2.97901C7.55153 1.69076 9.74874 1 12.0001 1ZM15.4852 13.416C15.8608 13.416 16.2207 13.2669 16.4864 13.0014C16.7519 12.7357 16.901 12.3758 16.901 12.0002C16.901 11.6247 16.7519 11.2647 16.4864 10.999C16.2207 10.7336 15.8608 10.5844 15.4852 10.5844C15.1097 10.5844 14.7497 10.7336 14.484 10.999C14.2186 11.2647 14.0694 11.6247 14.0694 12.0002C14.0698 12.3756 14.2192 12.7354 14.4846 13.0009C14.7501 13.2663 15.1099 13.4157 15.4852 13.416ZM12.0001 13.416C12.3756 13.416 12.7356 13.2669 13.0013 13.0014C13.2667 12.7357 13.4159 12.3758 13.4159 12.0002C13.4159 11.6247 13.2667 11.2647 13.0013 10.999C12.7356 10.7336 12.3756 10.5844 12.0001 10.5844C11.6245 10.5844 11.2646 10.7336 10.9989 10.999C10.7334 11.2647 10.5843 11.6247 10.5843 12.0002C10.5847 12.3756 10.734 12.7354 10.9995 13.0009C11.265 13.2663 11.6247 13.4157 12.0001 13.416ZM8.51496 13.416C8.89051 13.416 9.25047 13.2669 9.51614 13.0014C9.7816 12.7357 9.93077 12.3758 9.93077 12.0002C9.93077 11.6247 9.7816 11.2647 9.51614 10.999C9.25047 10.7336 8.89051 10.5844 8.51496 10.5844C8.13941 10.5844 7.77944 10.7336 7.51378 10.999C7.24831 11.2647 7.09914 11.6247 7.09914 12.0002C7.09953 12.3756 7.24889 12.7354 7.51436 13.0009C7.77983 13.2663 8.13961 13.4157 8.51496 13.416Z" fill="#232323"/>
</svg>
